{
    "$schema": "https://schema.management.azure.com/schemas/2019-04-01/deploymentParameters.json#",
    "contentVersion": "1.0.0.0",
    "parameters": {
        "vnetName": {
            "value": "vnet-demo-5"
        },
        "addressPrefixes": {
            "value": [ "10.0.5.0/24" ]
        },
        "subnets": {
            "value": [
                {
                    "name": "snet-10.0.5.0_24",
                    "addressPrefix": "10.0.5.0/24"
                }
              ]
        },
        "roleAssignments": {
            "value": [ ]
        },
        "peerings": {
            "value": [ ]
        }
    }
}


